﻿[
  {
      "_id":"c-05",
      "_parentId":"b-05",
      "_type":"component",
      "_component":"text",
      "_classes":"",
      "_layout":"full",
      "title":"Введение",
      "displayTitle":"",
      "body":"Каждая компания ставит перед собой свои цели. Однако какую бы цель вы ни выбрали&#160;— повысить узнаваемость бренда, наладить общение с клиентами или привлечь больше людей на сайт,&#160;— у Facebook найдется подходящий формат видео, который поможет вам добиться успеха. Все, что вам нужно,&#160;— это понять, где вы хотите показывать видео и в каком формате. &#160;&#160;&#160;",
      "instruction":"",
      "_pageLevelProgress": {
          "_isEnabled": true
      }
  },
  {
      "_id":"c-10",
      "_parentId":"b-10",
      "_type":"component",
      "_component":"text",
      "_classes":"",
      "_layout":"right",
      "title":"",
      "displayTitle":"",
      "body":"Люди потребляют все больше и больше видеоконтента. К 2020 году 75&#160;% мобильного трафика будет приходиться на видео.<sup>1</sup> Facebook находится в авангарде этих тенденций. Мы создаем лучшие инструменты для работы с видео для издателей, блогеров, рекламодателей и обычных пользователей.<br><br>Для рекламодателей высокая популярность видео&#160;— это отличная возможность рассказать о себе и по-новому обратиться к людям.<br><br>В этом курсе вы познакомитесь с основными концепциями, связанными с видеорекламой на Facebook. Мы поделимся с вами полезными ресурсами, а также ссылками на технические материалы.<br><br>Из этого курса вы узнаете:<br><br><ul><li>в чем разница между платформами, плейсментами и форматами;</li><li>какие форматы видеорекламы вы можете использовать;</li><li>как измерять эффективность видеорекламы для целевой аудитории.</li></ul>",
      "instruction":"",
      "_pageLevelProgress": {
          "_isEnabled": false
      }
  },
  {
      "_id":"c-11",
      "_parentId":"b-10",
      "_type":"component",
      "_component":"framed-video",
      "_classes":"",
      "_layout":"left",
      "title":"",
      "displayTitle":"",
      "body":"",
      "_videoPosition":"top",
      "_componentHeight":"612",
      "_videoPt":{"x":"0px","y":"0px"},
      "_showControls":true,
      "_mute":false,
      "instruction":"",
      "_items": [
          {
              "video":  "<video controls poster='course/en/images/01_introduction/waterford_lux_resort.png' id='vid' width='300px' controls='controls'><source src='course/en/video/01_introduction/waterford_lux_resort.mp4' type='video/mp4'></video>"
          }

      ]
  },
  {
      "_id":"c-20",
      "_parentId":"b-20",
      "_type":"component",
      "_component":"text",
      "_classes":"",
      "_layout":"full",
      "title":"",
      "displayTitle":"",
      "body":"<cite><sup>1</sup>Cisco Visual Networking Index: Global Mobile Data Traffic Forecast Update, 2016–2021 гг. (март 2017&#160;г.).</cite>",
      "instruction":"",
      "_pageLevelProgress": {
          "_isEnabled": false
      }
  },
  {
    "_id": "c-30",
    "_parentId": "b-30",
    "_type": "component",
    "_component": "co-jump",
    "_classes": "color-test",
    "_preLinkBody": "Следующая тема&#160;— ",
    "_linkBody": "Где демонстрируется ваша реклама",
    "_postLinkBody": ".",
    "_link": "#/id/co-100",
    "_graphic": "adapt/css/assets/icon_nextPage.png",
    "_pageLevelProgress": {
        "_isEnabled": false
    }
  },
  {
      "_id":"c-35",
      "_parentId":"b-35",
      "_type":"component",
      "_component":"text",
      "_classes":"",
      "_layout":"full",
      "title":"",
      "displayTitle":"",
      "body":"Вы можете размещать свою видеорекламу в разнообразных приложениях и сервисах Facebook. Каждая платформа, ее плейсменты и форматы имеют свои уникальные особенности. Давайте рассмотрим их подробнее.",
      "instruction":"",
      "_pageLevelProgress": {
          "_isEnabled": false
      }
  },
  {
      "_id":"c-40",
      "_parentId":"b-40",
      "_type":"component",
      "_component":"graphic",
      "_classes":"",
      "_layout":"full",
      "title":"Платформы, плейсменты и форматы",
      "displayTitle":"Платформы, плейсменты и форматы",
      "body":"",
      "instruction":"",
      "_pageLevelProgress": {
        "_isEnabled": false
      },
      "_graphic": {
          "alt": "Снимок экрана редактирования плейсмента",
          "src": "course/en/images/02_understanding_where_your_adsappear/edit_placement_screenshot.png",
          "attribution":""
      }
  },
  {
      "_id":"c-45",
      "_parentId":"b-40",
      "_type":"component",
      "_component":"text",
      "_classes":"",
      "_layout":"full",
      "title":"",
      "displayTitle":"",
      "body":"Чтобы научиться создавать эффективные кампании, крайне важно понимать разницу между <b>платформами</b>, <b>плейсментами</b> и <b>форматами</b>.<br><br><ul><li><strong>Платформа</strong>&#160;— это приложение или сервис, где вы хотите показывать свою видеорекламу: <strong>Facebook, Instagram</strong> и <strong>Audience Network</strong>.</li></ul><ul><li><strong>Плейсмент</strong>&#160;— это то место, где будет демонстрироваться ваше видео в рамках платформы. Предположим, вы хотите показывать свою видеорекламу в <strong>ленте Instagram.</strong> Тогда <strong>Instagram</strong>&#160;— это <i>платформа</i>, а <strong>лента</strong>&#160;— это <i>плейсмент</i> в рамках платформы.</li></ul><ul><li><strong>Формат</strong>&#160;— это оформление видеорекламы. Проще говоря, это то, как будет выглядеть ваше видео. Например, в&#160;качестве формата можно выбрать <strong>одно видео</strong>, <strong>кольцевую галерею</strong>, <strong>слайд-шоу</strong> или <strong>подборку.</strong></li></ul><br>Давайте подробнее поговорим о плейсментах, предлагаемых каждой платформой.",
      "instruction":"",
      "_pageLevelProgress": {
          "_isEnabled": false
      }
  },
  {
      "_id":"c-60",
      "_parentId":"b-60",
      "_type":"component",
      "_component":"graphic",
      "_classes":"",
      "_layout":"full",
      "title":"Facebook",
      "displayTitle":"Facebook",
      "body":"<img src='course/en/images/02_understanding_where_your_adsappear/platforms_facebook_dropdown.png'/><br><br><strong>Ленты.</strong> Этот плейсмент включает Ленту новостей на ПК и на моб. устройствах, позволяющую людям взаимодействовать с текстом, фото и видео от близких, друзей или от компаний. Лента новостей включает обновления статусов, фото, видео, ссылки, действия приложений и реакции от людей, Страниц и групп, на которые вы подписаны на Facebook.<br><br><strong>Совет по видео.</strong> Видеореклама в Ленте новостей может демонстрироваться в горизонтальном, квадратном или вертикальном формате, но мы рекомендуем выбрать последний вариант, ведь именно так людям удобнее смотреть видео в Ленте новостей.",
      "instruction":"",
      "_pageLevelProgress": {
        "_isEnabled": true
      },
      "_graphic": {
          "alt": "Снимок экрана с рекламой в Ленте новостей на Facebook",
          "src": "course/en/images/02_understanding_where_your_adsappear/facebook_newsfeed_adplacements_highlighted.png",
          "attribution":""
      }
  },
  {
      "_id":"c-70",
      "_parentId":"b-60",
      "_type":"component",
      "_component":"text",
      "_classes":"",
      "_layout":"full",
      "title":"Вставки в видео",
      "displayTitle":"",
      "body":"<strong>Вставки в видео.</strong> Данный формат позволяет показывать людям видеорекламу на Facebook продолжительностью 5–15 секунд в режиме mid-roll. Рекламная вставка в видео&#160;— это своего рода аналог рекламной паузы на телевидении, после просмотра которой передача возобновляется.<br><br><strong>Совет по видео.</strong> Рекламные вставки в видео демонстрируются в квадратном формате, даже если вы загрузите вертикальную рекламу. Кроме того, в этой видеорекламе обязательно должен быть звук.<hr><strong>Рекомендуемые видео.</strong> Этот плейсмент позволяет показывать видеорекламу в проигрывателе рекомендуемых видео. Как и в случае с Лентой новостей, рекомендуемые видео демонстрируются с учетом интересов людей, поэтому разные пользователи увидят разные видео.",
      "instruction":"",
      "_pageLevelProgress": {
          "_isEnabled": false
      }
  },
  {
      "_id":"c-80",
      "_parentId":"b-70",
      "_type":"component",
      "_component":"graphic",
      "_classes":"",
      "_layout":"full",
      "title":"Instagram",
      "displayTitle":"Instagram",
      "body":"",
      "instruction":"",
      "_pageLevelProgress": {
        "_isEnabled": true
      },
      "_graphic": {
          "alt": "Снимок экрана с раскрывающимся меню для выбора Instagram",
          "src": "course/en/images/02_understanding_where_your_adsappear/platforms_instagram_dropdown.png",
          "attribution":""
      }
  },
  {
      "_id":"c-85",
      "_parentId":"b-80",
      "_type":"component",
      "_component":"text",
      "_classes":"",
      "_layout":"full",
      "title":"",
      "displayTitle":"",
      "body":"<strong>Лента.</strong> Вы можете показывать свою видеорекламу не только в лентах на Facebook, но и в ленте Instagram. Если во время просмотра ленты человек касанием включит звук в одном видео, остальные видео в текущем сеансе будут автоматически воспроизводиться со звуком.",
      "instruction":"",
      "_pageLevelProgress": {
          "_isEnabled": false
      }
  },
  {
      "_id":"c-95",
      "_parentId":"b-90",
      "_type":"component",
      "_component":"text",
      "_classes":"",
      "_layout":"left",
      "title":"",
      "displayTitle":"",
      "body":"<strong>Instagram Stories.</strong>  Истории в Instagram&#160;— это формат, позволяющий людям делиться всеми событиями дня, а не только тем, что можно сохранить в профиле. Истории могут включать фото и видео, которые демонстрируются в формате слайд-шоу, и исчезают по истечении определенного времени. Помимо всего прочего, в Instagram Stories можно показывать рекламу. Вы можете загрузить одно фото или видео (длиной не более 15 секунд), которое будет демонстрироваться между историями людей. Реклама в историях поддерживает только вертикальные изображения и видео в формате 9:16.<br><br>Истории в Instagram можно смотреть как на мобильных устройствах, так и на ПК, но рекламу пока можно запускать только для моб. устройств.<br><br>Вы можете спросить: зачем показывать рекламу в истории, которая через некоторое время исчезает? Но что если вы захотите провести короткую распродажу самого популярного товара? Тут-то вам и пригодится формат истории.<br><br>Посмотрите, как студия дизайна интерьеров Hutch воспользовалась Instagram Stories, чтобы представить разные идеи по ремонту дома.",
      "instruction":"",
      "_pageLevelProgress": {
          "_isEnabled": false
      }
  },
  {
      "_id":"c-100",
      "_parentId":"b-90",
      "_type":"component",
      "_component":"framed-video",
      "_classes":"",
      "_layout":"right",
      "title":"",
      "displayTitle":"",
      "body":"",
      "_videoPosition":"top",
      "_componentHeight":"488",
      "_videoPt":{"x":"0px","y":"0px"},
      "_showControls":true,
      "_mute":false,
      "instruction":"",
      "_items": [
          {
              "video":  "<video controls poster='course/en/images/02_understanding_where_your_adsappear/hutch_insta_story_example_poster.png' id='vid' width='240px' controls='controls'><source src='course/en/video/02_understanding_where_your_adsappear/hutch_insta_story_example.mp4' type='video/mp4'></video>"
          }

      ]
  },
  {
      "_id":"c-120",
      "_parentId":"b-120",
      "_type":"component",
      "_component":"graphic",
      "_classes":"",
      "_layout":"full",
      "title":"Audience Network",
      "displayTitle":"Audience Network",
      "body":"",
      "instruction":"",
      "_pageLevelProgress": {
        "_isEnabled": true
      },
      "_graphic": {
          "alt": "Снимок экрана с раскрывающимся меню для выбора плейсмента Audience Network",
          "src": "course/en/images/02_understanding_where_your_adsappear/platforms_audience_network_drowpdown.png",
          "attribution":""
      }
  },
  {
      "_id":"c-125",
      "_parentId":"b-120",
      "_type":"component",
      "_component":"text",
      "_classes":"",
      "_layout":"full",
      "title":"",
      "displayTitle":"",
      "body":"Audience Network позволяет запускать кампании за пределами Facebook, чтобы охватывать аудитории на сайтах и в приложениях на разных устройствах, например компьютерах, мобильных устройствах и подключенных телевизорах (эта функция может быть пока доступна не всем). Мы используем те же механизмы таргетинга, измерений и показа, что и на Facebook, чтобы каждое рекламное объявление в Audience Network помогало вам достигать выбранных целей при минимальных затратах.",
      "instruction":"",
      "_pageLevelProgress": {
          "_isEnabled": false
      }
  },
  {
      "_id":"c-130",
      "_parentId":"b-130",
      "_type":"component",
      "_component":"twoColumn",
      "_classes":"clearFix",
      "_layout":"full",
      "title":"Нативная реклама, баннеры и вставки",
      "displayTitle":"",
      "body":"",
      "instruction":"",
      "fontSize":"4vmin",
      "lineHeight":"",
      "fontColor":"#ffffff",
      "leftColumnWidth": "35%",
      "rightColumnWidth": "65%",
      "marginTop": "90px",
      "imageLayout": "left",
      "text": "<b>Нативная реклама, баннеры и вставки</b>. Нативную рекламу, баннеры и вставки можно запускать только в Audience Network. Издатели выбирают рекламный блок, подходящий для приложения, а также настраивают, где он будет демонстрироваться и как он будет выглядеть.",
      "_graphic": {
          "alt": "Снимок экрана макета нативной рекламы для iPhone",
          "src": "course/en/images/02_understanding_where_your_adsappear/nativeads_mockup.jpg",
          "attribution":""
      },
      "imageHeading": "",
      "imageSubHeading": ""
  },
  {
      "_id":"c-140",
      "_parentId":"b-130",
      "_type":"component",
      "_component":"twoColumn",
      "_classes":"clearFix",
      "_layout":"full",
      "title":"",
      "displayTitle":"",
      "body":"",
      "instruction":"",
      "fontSize":"4vmin",
      "lineHeight":"",
      "fontColor":"#ffffff",
      "leftColumnWidth": "35%",
      "rightColumnWidth": "65%",
      "marginTop": "50px",
      "imageLayout": "right",
      "text": "Издатели могут размещать баннерную рекламу в Audience Network внутри приложения и обновлять ее, чтобы реклама не надоела людям.",
      "_graphic": {
          "alt": "Пример баннерной рекламы",
          "src": "course/en/images/02_understanding_where_your_adsappear/bannerad_example.jpg",
          "attribution":""
      },
      "imageHeading": "",
      "imageSubHeading": ""
  },
  {
      "_id":"c-150",
      "_parentId":"b-130",
      "_type":"component",
      "_component":"twoColumn",
      "_classes":"clearFix",
      "_layout":"full",
      "title":"",
      "displayTitle":"",
      "body":"",
      "instruction":"",
      "fontSize":"4vmin",
      "lineHeight":"",
      "fontColor":"#ffffff",
      "leftColumnWidth": "35%",
      "rightColumnWidth": "65%",
      "marginTop": "80px",
      "imageLayout": "left",
      "text": "Рекламные вставки&#160;— это полноэкранная реклама, которая превосходно привлекает внимание людей. Многие издатели рекомендуют заполнять рекламными вставками паузы в играх или естественные перерывы, возникающие в работе приложения.",
      "_graphic": {
          "alt": "Пример рекламной вставки",
          "src": "course/en/images/02_understanding_where_your_adsappear/interstitialad_example.jpg",
          "attribution":""
      },
      "imageHeading": "",
      "imageSubHeading": ""
  },
  {
      "_id":"c-160",
      "_parentId":"b-160",
      "_type":"component",
      "_component":"text",
      "_classes":"",
      "_layout":"full",
      "title":"Вставки в видео",
      "displayTitle":"",
      "body":"<strong>Вставки в видео</strong>. Плейсмент вставок в видео в Audience Network позволяет показывать видеорекламу людям, которые смотрят видео на сайтах и в приложениях за пределами Facebook. Видеореклама будет демонстрироваться до и/или во время показа видеоконтента на сайте или в приложении, зарегистрированном в Audience Network. Плейсмент вставок в видео в Audience Network поддерживает видеорекламу со звуком продолжительностью 5–30 секунд (при выборе только плейсмента вставок в видео) или 5–120 секунд (при использовании автоматических плейсментов).",
      "instruction":"",
      "_pageLevelProgress": {
          "_isEnabled": false
      }
  },
  {
      "_id":"c-180",
      "_parentId":"b-180",
      "_type":"component",
      "_component":"twoColumn",
      "_classes":"clearFix",
      "_layout":"full",
      "title":"Видео с бонусами",
      "displayTitle":"",
      "body":"",
      "instruction":"",
      "fontSize":"4vmin",
      "lineHeight":"",
      "fontColor":"#ffffff",
      "leftColumnWidth": "45%",
      "rightColumnWidth": "55%",
      "marginTop": "50px",
      "imageLayout": "left",
      "text": "<strong>Видео с бонусами</strong>. Данный формат позволяет показывать видеорекламу продолжительностью 15–30 секунд, которую нельзя пропустить, в обмен на поощрение (виртуальную валюту, товары в приложении или эксклюзивный контент).",
      "_graphic": {
          "alt": "Анимированный GIF для видео с бонусами",
          "src": "course/en/images/02_understanding_where_your_adsappear/rewarded_video.gif",
          "attribution":""
      },
      "imageHeading": "",
      "imageSubHeading": ""
  },
  {
      "_id":"c-190",
      "_parentId":"b-180",
      "_type":"component",
      "_component":"text",
      "_classes":"",
      "_layout":"full",
      "title":"",
      "displayTitle":"",
      "body":"Подробнее о возможностях Audience Network вы сможете узнать на <a href='https://www.facebookblueprint.com/student/catalog/list?search=Audience%20Network' target='_blank'>курсах Blueprint</a> по этой теме.",
      "instruction":"",
      "_pageLevelProgress": {
          "_isEnabled": false
      }
  },
  {
    "_id": "c-250",
    "_parentId": "b-250",
    "_type": "component",
    "_component": "co-jump",
    "_classes": "color-test",
    "_preLinkBody": "Итак, мы поговорили о том, где можно показывать видеорекламу. Теперь давайте рассмотрим",
    "_linkBody": "форматы рекламы",
    "_postLinkBody": ".",
    "_link": "#/id/co-150",
    "_graphic": "adapt/css/assets/icon_nextPage.png",
    "_pageLevelProgress": {
        "_isEnabled": false
    }
  },
  {
      "_id":"c-260",
      "_parentId":"b-260",
      "_type":"component",
      "_component":"text",
      "_classes":"",
      "_layout":"full",
      "title":"",
      "displayTitle":"",
      "body":"Итак, мы познакомились с четырьмя платформами и доступными на них плейсментами. Теперь давайте рассмотрим форматы видеорекламы, которые вы можете использовать. Правда есть одно «но»: некоторые форматы рекламы можно использовать не во всех платформах и/или плейсментах.",
      "instruction":"",
      "_pageLevelProgress": {
          "_isEnabled": false
      }
  },
  {
      "_id":"c-270",
      "_parentId":"b-270",
      "_type":"component",
      "_component":"text",
      "_classes":"",
      "_layout":"full",
      "title":"Видео (Лента/вставка в видео)",
      "displayTitle":"Видео (Лента/вставка в видео)",
      "body":"",
      "instruction":"",
      "_pageLevelProgress": {
          "_isEnabled": true
      }
  },
  {
      "_id":"c-271",
      "_parentId":"b-270",
      "_type":"component",
      "_component":"text",
      "_classes":"",
      "_layout":"right",
      "title":"",
      "displayTitle":"",
      "body":"Вы наверняка много раз видели и, возможно, даже создавали видео в вертикальном, горизонтальном и квадратном форматах (у видеорекламы со ссылками и рекламы без ссылок разные форматы). Все, что нужно,&#160;— это камера на смартфоне, приложения для обработки видео и немного вдохновения. В основе всех тех форматов, которые мы рассмотрим ниже, лежит стандартное видео.<br><br>Напоминаем, что стандартную видеорекламу можно показывать на Facebook, в Audience Network и Instagram. Кроме того, если вы хотите побудить людей к тому или иному действию, вы можете добавить в видео кнопки призыва к действию, например «В магазин», «Поставить Странице \"Нравится\"» или «Подробнее».",
      "instruction":"",
      "_pageLevelProgress": {
          "_isEnabled": false
      }
  },
  {
      "_id":"c-272",
      "_parentId":"b-270",
      "_type":"component",
      "_component":"framed-video",
      "_classes":"",
      "_layout":"left",
      "title":"",
      "displayTitle":"",
      "body":"",
      "_videoPosition":"top",
      "_componentHeight":"501",
      "_videoPt":{"x":"0px","y":"0px"},
      "_showControls":true,
      "_mute":false,
      "instruction":"",
      "_items": [
          {
              "video":  "<video controls poster='course/en/images/03_adformats/cheetos.png' id='vid' width='300px' controls='controls'><source src='course/en/video/03_adformats/cheetos.mp4' type='video/mp4'></video>"
          }

      ]
  },
  {
      "_id":"c-280",
      "_parentId":"b-280",
      "_type":"component",
      "_component":"graphic",
      "_classes":"",
      "_layout":"full",
      "title":"",
      "displayTitle":"",
      "body":"Особого внимания заслуживают два варианта стандартного видео:<br><br><ul><li><strong>Файлы GIF</strong>&#160;— цикличные графические изображения.</li><li><strong>Анимированные фото</strong> — неподвижные кадры с частичным цикличным движением (см. изображение ниже).</li></ul>",
      "instruction":"",
      "_pageLevelProgress": {
        "_isEnabled": false
      },
      "_graphic": {
          "alt": "Пример анимированного GIF",
          "src": "course/en/images/03_adformats/cinemagraph_example.gif",
          "attribution":""
      }
  },
  {
      "_id":"c-290",
      "_parentId":"b-290",
      "_type":"component",
      "_component":"twoColumn",
      "_classes":"clearFix",
      "_layout":"full",
      "title":"Кольцевая галерея",
      "displayTitle":"Кольцевая галерея",
      "body":"",
      "instruction":"",
      "fontSize":"4vmin",
      "lineHeight":"",
      "fontColor":"#ffffff",
      "leftColumnWidth": "45%",
      "rightColumnWidth": "55%",
      "marginTop": "50px",
      "imageLayout": "left",
      "text": "В кольцевую галерею можно добавить до 10 видео, изображений или и того, и другого. Вы также можете настроить уникальный призыв к действию для каждой карточки. На разных карточках галереи можно представить разные товары, различные особенности одного продукта или рассказать историю бренда.<br><br>Подобную рекламу можно запустить на Facebook, в Instagram и Audience Network, что позволит охватить еще больше людей на разных платформах.",
      "_graphic": {
          "alt": "Пример рекламы с кольцевой галереей и анимированным GIF от Kiterly",
          "src": "course/en/images/03_adformats/kiterly_carouselad_example.gif",
          "attribution":""
      },
      "imageHeading": "",
      "imageSubHeading": ""
  },
  {
      "_id":"c-300",
      "_parentId":"b-300",
      "_type":"component",
      "_component":"text",
      "_classes":"",
      "_layout":"full",
      "title":"",
      "displayTitle":"",
      "body":"Подробнее см. курс, посвященный <a href='https://fb.me/blueprint-carousel' target='_blank'>рекламе в формате кольцевой галереи</a>.",
      "instruction":"",
      "_pageLevelProgress": {
          "_isEnabled": false
      }
  },
  {
      "_id":"c-310",
      "_parentId":"b-310",
      "_type":"component",
      "_component":"text",
      "_classes":"",
      "_layout":"full",
      "title":"Слайд-шоу",
      "displayTitle":"Слайд-шоу",
      "body":"",
      "instruction":"",
      "_pageLevelProgress": {
          "_isEnabled": true
      }
  },
  {
      "_id":"c-311",
      "_parentId":"b-310",
      "_type":"component",
      "_component":"text",
      "_classes":"",
      "_layout":"right",
      "title":"",
      "displayTitle":"",
      "body":"Слайд-шоу&#160;— это уникальный формат, позволяющий создать привлекательную «облегченную» видеорекламу из нескольких фото или видео. Facebook помогает без труда создавать и редактировать рекламу со слайд-шоу и даже добавлять в нее звук и текст. Слайд-шоу быстрее загружаются и потребляют меньше данных, чем обычные видео, благодаря чему их смогут посмотреть люди даже в регионах с низкой скоростью подключения к Интернету.",
      "instruction":"",
      "_pageLevelProgress": {
          "_isEnabled": false
      }
  },
  {
      "_id":"c-312",
      "_parentId":"b-310",
      "_type":"component",
      "_component":"framed-video",
      "_classes":"",
      "_layout":"left",
      "title":"",
      "displayTitle":"",
      "body":"",
      "_videoPosition":"top",
      "_componentHeight":"501",
      "_videoPt":{"x":"0px","y":"0px"},
      "_showControls":true,
      "_mute":false,
      "instruction":"",
      "_items": [
          {
              "video":  "<video controls poster='course/en/images/03_adformats/slide_show_ad_example_stance.png' id='vid' width='300px' controls='controls'><source src='course/en/video/03_adformats/slide_show_ad_example_stance.mp4' type='video/mp4'></video>"
          }

      ]
  },
  {
      "_id":"c-320",
      "_parentId":"b-320",
      "_type":"component",
      "_component":"text",
      "_classes":"",
      "_layout":"full",
      "title":"Подборка",
      "displayTitle":"Подборка",
      "body":"",
      "instruction":"",
      "_pageLevelProgress": {
          "_isEnabled": true
      }
  },
  {
      "_id":"c-321",
      "_parentId":"b-320",
      "_type":"component",
      "_component":"text",
      "_classes":"",
      "_layout":"right",
      "title":"",
      "displayTitle":"",
      "body":"Подборка&#160;― это формат рекламы на Facebook, предназначенный исключительно для мобильных устройств. Такая реклама состоит из фото или видео и четырех изображений товаров под ним и отображается в Ленте новостей.<br><br>После касания изображения того или иного товара человек переходит в соответствующий раздел мобильного сайта или приложения. Чтобы посмотреть другие товары, также можно нажать кнопку «Еще». В итоге на ваш мобильный сайт или в приложение попадают потенциальные покупатели, многие из которых с большой вероятностью выполнят конверсию.",
      "instruction":"",
      "_pageLevelProgress": {
          "_isEnabled": false
      }
  },
  {
      "_id":"c-322",
      "_parentId":"b-320",
      "_type":"component",
      "_component":"framed-video",
      "_classes":"",
      "_layout":"left",
      "title":"",
      "displayTitle":"",
      "body":"",
      "_videoPosition":"top",
      "_componentHeight":"588",
      "_videoPt":{"x":"0px","y":"0px"},
      "_showControls":true,
      "_mute":false,
      "instruction":"",
      "_items": [
          {
              "video":  "<video controls poster='course/en/images/03_adformats/dollarshaveclub.png' id='vid' width='300px' controls='controls'><source src='course/en/video/03_adformats/dollarshaveclub.mp4' type='video/mp4'></video>"
          }

      ]
  },
  {
      "_id":"c-325",
      "_parentId":"b-325",
      "_type":"component",
      "_component":"text",
      "_classes":"",
      "_layout":"full",
      "title":"",
      "displayTitle":"",
      "body":"Подробнее см. курс, посвященный <a href='https://fb.me/blueprint-collection' target='_blank'>рекламе с подборкой</a>.",
      "instruction":"",
      "_pageLevelProgress": {
          "_isEnabled": false
      }
  },
  {
      "_id":"c-330",
      "_parentId":"b-330",
      "_type":"component",
      "_component":"text",
      "_classes":"",
      "_layout":"full",
      "title":"Холст",
      "displayTitle":"Холст",
      "body":"",
      "instruction":"",
      "_pageLevelProgress": {
          "_isEnabled": true
      }
  },
  {
      "_id":"c-331",
      "_parentId":"b-330",
      "_type":"component",
      "_component":"text",
      "_classes":"",
      "_layout":"right",
      "title":"",
      "displayTitle":"",
      "body":"Холст помогает заинтересовать клиентов и побудить их нажать кнопку призыва к действию. Это полноэкранный мобильный элемент, поддерживающий все форматы рекламы. Владельцы мобильных устройств могут пролистывать, поворачивать и увеличивать эту рекламу на Facebook и в Instagram.<br><br>На Холсте можно одновременно размещать видео, изображения, контент 360 и кнопки призыва к действию, чтобы раскрыть маркетинговый посыл или рассказать историю бренда. Кроме того, Холст быстро загружается, а создать его совсем несложно.",
      "instruction":"",
      "_pageLevelProgress": {
          "_isEnabled": false
      }
  },
  {
      "_id":"c-332",
      "_parentId":"b-330",
      "_type":"component",
      "_component":"framed-video",
      "_classes":"",
      "_layout":"left",
      "title":"",
      "displayTitle":"",
      "body":"",
      "_videoPosition":"top",
      "_componentHeight":"603",
      "_videoPt":{"x":"0px","y":"0px"},
      "_showControls":true,
      "_mute":false,
      "instruction":"",
      "_items": [
          {
              "video":  "<video controls poster='course/en/images/03_adformats/seattle_sounders.png' id='vid' width='300px' controls='controls'><source src='course/en/video/03_adformats/seattle_sounders.mp4'></video>"
          }

      ]
  },
  {
      "_id":"c-340",
      "_parentId":"b-340",
      "_type":"component",
      "_component":"text",
      "_classes":"",
      "_layout":"full",
      "title":"",
      "displayTitle":"",
      "body":"Подробнее см. курс, посвященный <a href='https://fb.me/blueprint-fullscreencanvas' target='_blank'>Холсту</a>.",
      "instruction":"",
      "_pageLevelProgress": {
          "_isEnabled": false
      }
  },
  {
      "_id":"c-350",
      "_parentId":"b-350",
      "_type":"component",
      "_component":"text",
      "_classes":"",
      "_layout":"full",
      "title":"Дополнительные форматы",
      "displayTitle":"Дополнительные форматы",
      "body":"",
      "instruction":"",
      "_pageLevelProgress": {
          "_isEnabled": true
      }
  },
  {
      "_id":"c-360",
      "_parentId":"b-360",
      "_type":"component",
      "_component":"text",
      "_classes":"",
      "_layout":"left",
      "title":"",
      "displayTitle":"",
      "body":"<h2>Facebook Live</h2><br>Facebook Live&#160;— это отличный способ заинтересовать текущих подписчиков и привлечь новых во время и после прямого эфира. Вы можете провести трансляцию с мероприятия, ответить на вопросы подписчиков в прямом эфире и наблюдать за реакциями зрителей. Когда вы выйдете в прямой эфир, ваши подписчики получат уведомление, поэтому смогут скорее присоединиться к трансляции.<br><br>С помощью Facebook Live компания Hershey’s рассказала о новом батончике Cookie Layer Crunch. Прямой эфир проводился из магазина Hershey’s Chocolate World на площади Таймс-сквер.",
      "instruction":"",
      "_pageLevelProgress": {
          "_isEnabled": false
      }
  },
  {
      "_id":"c-361",
      "_parentId":"b-360",
      "_type":"component",
      "_component":"framed-video",
      "_classes":"",
      "_layout":"right",
      "title":"",
      "displayTitle":"",
      "body":"",
      "_videoPosition":"top",
      "_componentHeight":"603",
      "_videoPt":{"x":"0px","y":"0px"},
      "_showControls":true,
      "_mute":true,
      "instruction":"",
      "_items": [
          {
              "video":  "<video controls poster='course/en/images/03_adformats/hersheys_ad_video_comp.png' id='vid' width='300px' controls='controls'><source src='course/en/video/03_adformats/hersheys_ad_video_comp.mp4'></video>"
          }

      ]
  },
  {
      "_id":"c-380",
      "_parentId":"b-380",
      "_type":"component",
      "_component":"media",
      "_classes":"",
      "_layout":"full",
      "title":"",
      "displayTitle": "",
      "body": "<h2>Facebook 360</h2><br>Формат Facebook 360 обеспечивает качественно иной уровень «погружения в контент». Создать контент 360 можно так же, как видео Facebook. Зрители могут изучить видео вдоль и поперек, поворачивая устройство или проводя пальцем по экрану. Вы сможете пригласить людей в виртуальный поход с <i>вашей экипировкой</i> или «перенести» их туда, где они смогут ближе познакомиться с <i>вашим брендом</i>.<br><br>Контент Facebook 360 демонстрируется в Ленте новостей, а посмотреть его можно с большинства смартфонов и ПК.",
      "instruction": "",
      "_setCompletionOn":"inview",
      "_useClosedCaptions":true,
      "_startLanguage":"ru",
      "_media": {
          "mp4": "course/en/video/03_adformats/get_started360.mp4",
          "ogv": "",
          "poster": "course/en/video/03_adformats/360_video_poster.png",
          "cc": [
              {
                  "srclang": "ru",
                  "src": "course/en/video/03_adformats/get_started360_mp4_20171113T0932_eng.ru_RU.srt"
              }
          ]
      },
      "_transcript": {
          "_setCompletionOnView":false,
          "_inlineTranscript": false,
          "_externalTranscript": false,
          "inlineTranscriptButton": "Текст",
          "inlineTranscriptCloseButton": "Закрыть текст",
          "inlineTranscriptBody": "Здесь должен быть размещен основной текст",
          "transcriptLinkButton": "Текст",
          "transcriptLink": "assets/transcript.pdf"
      },
      "_playerOptions": {
          "poster": "",
          "showPosterWhenEnded": false,
          "defaultVideoWidth": 480,
          "defaultVideoHeight": 270,
          "videoWidth": -1,
          "videoHeight": -1,
          "defaultAudioWidth": 400,
          "defaultAudioHeight": 30,
          "defaultSeekBackwardInterval": "(media.duration * 0.05)",
          "defaultSeekForwardInterval": "(media.duration * 0.05)",
          "audioWidth": -1,
          "audioHeight": -1,
          "startVolume": 0.8,
          "loop": false,
          "autoRewind": true,
          "enableAutosize": true,
          "alwaysShowHours": false,
          "showTimecodeFrameCount": false,
          "framesPerSecond": 25,
          "autosizeProgress" : true,
          "alwaysShowControls": false,
          "hideVideoControlsOnLoad": false,
          "clickToPlayPause": true,
          "iPadUseNativeControls": false,
          "iPhoneUseNativeControls": false,
          "AndroidUseNativeControls": false,
          "features": ["playpause","current","progress","duration","tracks","volume","fullscreen"],
          "isVideo": true,
          "enableKeyboard": true,
          "pauseOtherPlayers": true,
          "startLanguage": "ru",
          "tracksText": "mejs.i18n.t('Captions/Subtitles')",
          "hideCaptionsButtonWhenEmpty": true,
          "toggleCaptionsButtonWhenOnlyOne": false,
          "slidesSelector": ""
      }
  },
  {
      "_id":"c-390",
      "_parentId":"b-380",
      "_type":"component",
      "_component":"text",
      "_classes":"",
      "_layout":"full",
      "title":"",
      "displayTitle":"",
      "body":"Подробнее об этом вы узнаете в курсе, посвященном <a href='https://fb.me/blueprint-facebook360' target='_blank'>Facebook 360</a>.",
      "instruction":"",
      "_pageLevelProgress": {
          "_isEnabled": false
      }
  },
  {
    "_id": "c-400",
    "_parentId": "b-400",
    "_type": "component",
    "_component": "co-jump",
    "_classes": "color-test",
    "_preLinkBody": "Следующая тема&#160;— ",
    "_linkBody": "Характеристики видео",
    "_postLinkBody": ".",
    "_link": "#/id/co-200",
    "_graphic": "adapt/css/assets/icon_nextPage.png",
    "_pageLevelProgress": {
        "_isEnabled": false
    }
  },
  {
      "_id":"c-405",
      "_parentId":"b-405",
      "_type":"component",
      "_component":"text",
      "_classes":"",
      "_layout":"full",
      "title":"",
      "displayTitle":"",
      "body":"Помните ли вы ленты 8 Track, кассеты, диски CD или Photo CD? Было время, когда мы слушали музыку и смотрели видео именно в этих форматах. Сегодня видеоресурсами мы называем типы видео, поддерживаемые Facebook. Ниже вы найдете полезные советы, которые помогут вам при создании видеорекламы.",
      "instruction":"",
      "_pageLevelProgress": {
          "_isEnabled": false
      }
  },
  {
      "_id":"c-410",
      "_parentId":"b-410",
      "_type":"component",
      "_component":"text",
      "_classes":"",
      "_layout":"full",
      "title":"Типы видеоресурсов",
      "displayTitle":"Типы видеоресурсов",
      "body":"Основные рекомендации Facebook относятся к форматам <strong>MP4</strong> или <strong>MOV</strong>. Если у вашего видео другой формат, нажмите <a href='https://www.facebook.com/help/218673814818907?hc_location=ufi' target='_blank'>здесь</a>, чтобы просмотреть список поддерживаемых форматов.",
      "instruction":"",
      "_pageLevelProgress": {
          "_isEnabled": true
      }
  },
  {
      "_id":"c-420",
      "_parentId":"b-420",
      "_type":"component",
      "_component":"text",
      "_classes":"",
      "_layout":"full",
      "title":"Продолжительность видеофайлов",
      "displayTitle":"Продолжительность видеофайлов",
      "body":"Оптимальная длина видео, способного передавать <i>полноценное маркетинговое сообщение</i> на всех платформах и при этом быстро загружаться в мобильной среде,&#160;— не более 15&#160;секунд.<br><br>Минимальная продолжительность видео&#160;— пять секунд, максимальная&#160;— 120 минут.<br><br>При использовании формата слайд-шоу вы можете задать промежуток между демонстрируемыми изображениями. В одном слайд-шоу мы рекомендуем показывать от трех до семи изображений.",
      "instruction":"",
      "_pageLevelProgress": {
          "_isEnabled": true
      }
  },
  {
      "_id":"c-430",
      "_parentId":"b-430",
      "_type":"component",
      "_component":"text",
      "_classes":"",
      "_layout":"full",
      "title":"Формат: соответствие требованиям/рекомендации",
      "displayTitle":"Формат: соответствие требованиям/рекомендации",
      "body":"Говорят, что изображение порой стоит тысячи слов. Внизу вы найдете примеры того, как смотрятся на мобильных устройствах изображения разного формата.<div style='width:100%'><img src='course/en/images/04_video_assets_specifications_and_details/phone_size_ratios.png' alt=\"Формат телефона\" style='float:left; width:100%; display:block'><div style='float:left; width:18%; text-align:center; font-size: 1.3vmin; margin: 0 1% 0 1%; font-weight:bold'>16:9<br />Альбомная ориентация/горизонтальный формат</div><!-- end textArea1 --><div style='float:left; width:10%; text-align:center; font-size: 1.3vmin; margin: 0 1% 0 1%; font-weight:bold'>1:2<br />Лента новостей</div><!-- end textArea2 --><div style='float:left; width:19%; text-align:center; font-size: 1.3vmin; margin: 0 1% 0 1%; font-weight:bold'>1:1<br />Квадрат</div><!-- end textArea3 --><div style='float:left; width:9%; text-align:center; font-size: 1.3vmin; margin: 0 1% 0 1%; font-weight:bold'>4:5<br />Вертикальный формат<br />(Instagram и Facebook)</div><!-- end textArea4 --><div style='float:left; width:19%; text-align:center; font-size: 1.3vmin; margin: 0 1% 0 1%; font-weight:bold'>2:3<br />Вертикальный формат<br />(Только Facebook)</div><!-- end textArea5 --><div style='float:left; width:10%; text-align:center; font-size: 1.3vmin; margin: 0 1% 0 1%; font-weight:bold'>9:16<br />Портретная ориентация/вертикальный формат</div><!-- end textArea6 --></div><!-- end imageText wrapper -->",
      "instruction":"",
      "_pageLevelProgress": {
          "_isEnabled": true
      }
  },
  {
      "_id":"c-440",
      "_parentId":"b-440",
      "_type":"component",
      "_component":"text",
      "_classes":"",
      "_layout":"full",
      "title":"",
      "displayTitle":"",
      "body":"<strong>Примечание.</strong> Полный список плейсментов для видео, а также требований в плане формата и длины видео см. <a href='https://scontent-sea1-1.xx.fbcdn.net/v/t39.2365-6/20748461_1940877686194049_3269076913825513472_n.pdf?_nc_log=1&oh=4fda16824079fe4a7aa03c14bcddc42c&oe=5A19CEBF' target='_blank'>здесь</a>.",
      "instruction":"",
      "_pageLevelProgress": {
          "_isEnabled": false
      }
  },
  {
    "_id":"c-450",
    "_parentId":"b-450",
    "_type":"component",
    "_component":"accordion",
    "_classes":"",
    "_layout":"full",
    "title": "Подберите подходящий формат",
    "displayTitle": "Подберите подходящий формат",
    "body": "Сделайте набросок или черновик истории, которую вы хотите рассказать. Попутно можно изучить параметры видео для каждой платформы. Нажмите каждый пункт, чтобы открыть описание.",
    "instruction": "",
    "_items": [
      {
        "title": "<strong>Формат для мобильных устройств</strong>.",
        "body": "Оптимизируйте материалы для мобильных устройств. Чтобы добиться желаемых результатов, как можно чаще используйте вертикальные видео.",
        "_graphic": {
          "src": "",
          "alt": ""
        }
      },
      {
        "title": "<strong>Facebook</strong>",
        "body": "Если вы создаете видеорекламу на Facebook без ссылок, рекомендуем формат портрета (9:16). При использовании этого формата самые важные части видео должны «укладываться» в формат 2:3, так как именно с этим соотношением сторон видео отображается в Ленте новостей Facebook для мобильных устройств. Но если вы создаете видеорекламу со ссылками, она будет представлена в горизонтальном формате, а вертикальные видео могут быть преобразованы в формат 4:5.<br><br>Для рекламных вставок рекомендуем выбрать формат 1:1 (квадрат) или 16:9 (альбомный). Видео 360° отображается в формате 1:2, а при нажатии разворачивается во весь экран. Посмотреть, как будет выглядеть ваша реклама, можно в Студии дизайна.",
        "_graphic": {
          "src": "",
          "alt": ""
        }
      },
      {
        "title": "<strong>Instagram</strong>",
        "body": "Instagram поддерживает форматы с 1,9:1 по 4:5 для всех видео в ленте по всем целям. Истории в Instagram отображаются только в портретной ориентации (9:16).",
        "_graphic": {
          "src": "",
          "alt": ""
        }
      },
      {
        "title": "<strong>Facebook и Instagram</strong>",
        "body": "Чтобы оптимизировать кампании с видеорекламой на Facebook и в Instagram, рекомендуем выбрать формат 4:5.",
        "_graphic": {
          "src": "",
          "alt": ""
        }
      },
      {
        "title": "<strong>Audience Network</strong>",
        "body": "В Audience Network плейсмент вставок в видео с целью «Просмотры видео» поддерживает формат 1:1 и альбомную ориентацию (16:9).",
        "_graphic": {
          "src": "",
          "alt": ""
        }
      }
    ]
  },
  {
      "_id":"c-460",
      "_parentId":"b-460",
      "_type":"component",
      "_component":"text",
      "_classes":"",
      "_layout":"full",
      "title":"Как сделать видео понятным и без звука",
      "displayTitle":"Как сделать видео понятным и без звука",
      "body":"",
      "instruction":"",
      "_pageLevelProgress": {
          "_isEnabled": true
      }
  },
  {
      "_id":"c-461",
      "_parentId":"b-460",
      "_type":"component",
      "_component":"text",
      "_classes":"",
      "_layout":"right",
      "title":"",
      "displayTitle":"",
      "body":"Многие люди пользуются мобильными устройствами на работе или в общественных местах, поэтому отключают звук. Рекомендуем добавить в видео подписи или текст (чтобы смысл его был понятен и без звука), а также звуковое сопровождение&#160;— для тех, кто смотрит видео со звуком.<br><br>По нашим данным, видеорекламу с подписями люди смотрят в среднем на 12&#160;% дольше.<sup>1</sup><br><br>Чтобы подготовить видео для просмотра со звуком и без:<ul><li>используйте изображения и контент, передающие нужный посыл и без звука;</li><li>добавьте подписи, чтобы люди правильно поняли ваше сообщение;</li><li>добавьте к видео наложенный текст.</li></ul>",
      "instruction":"",
      "_pageLevelProgress": {
          "_isEnabled": false
      }
  },
  {
      "_id":"c-462",
      "_parentId":"b-460",
      "_type":"component",
      "_component":"framed-video",
      "_classes":"",
      "_layout":"left",
      "title":"",
      "displayTitle":"",
      "body":"",
      "_videoPosition":"top",
      "_componentHeight":"597",
      "_videoPt":{"x":"0px","y":"0px"},
      "_showControls":true,
      "_mute":false,
      "instruction":"",
      "_items": [
          {
              "video":  "<video controls poster='course/en/images/04_video_assets_specifications_and_details/gaia.png' id='vid' width='300px' controls='controls'><source src='course/en/video/04_video_assets_specifications_and_details/gaia.mp4'></video>"
          }

      ]
  },
  {
      "_id":"c-470",
      "_parentId":"b-465",
      "_type":"component",
      "_component":"text",
      "_classes":"",
      "_layout":"full",
      "title":"",
      "displayTitle":"",
      "body":"Подробный обзор требований к видео в семействе приложений и сервисов Facebook см. <a href='https://scontent-sea1-1.xx.fbcdn.net/v/t39.2365-6/20748461_1940877686194049_3269076913825513472_n.pdf?_nc_log=1&oh=4fda16824079fe4a7aa03c14bcddc42c&oe=5A19CEBF' target='_blank'>здесь</a>. Кроме того, рекомендуем пройти курс <a href='https://fb.me/creative-considerations-video' target='_blank'>Видео на мобильных устройствах</a>.<hr><sup>1</sup><cite>Финансовый отчет Facebook за 1 квартал, апрель 2016&#160;г.</cite>",
      "instruction":"",
      "_pageLevelProgress": {
          "_isEnabled": false
      }
  },
  {
    "_id": "c-480",
    "_parentId": "b-480",
    "_type": "component",
    "_component": "co-jump",
    "_classes": "color-test",
    "_preLinkBody": "Следующая тема&#160;— ",
    "_linkBody": "метрики",
    "_postLinkBody": ", позволяющие изучить влияние видеорекламы на целевую аудиторию.",
    "_link": "#/id/co-250",
    "_graphic": "adapt/css/assets/icon_nextPage.png",
    "_pageLevelProgress": {
        "_isEnabled": false
    }
  },
  {
      "_id":"c-490",
      "_parentId":"b-490",
      "_type":"component",
      "_component":"text",
      "_classes":"",
      "_layout":"full",
      "title":"",
      "displayTitle":"",
      "body":"Метрики позволяют измерить эффективность видеорекламы на Facebook, в Instagram и Audience Network. Из отчетов по рекламе в Ads Manager вы узнаете, сколько человек посмотрело ваше видео, как долго они его смотрели и выполнили ли они в итоге нужное вам действие. Если вы будете отслеживать эти метрики, вы сможете как следует изучить свою аудиторию, продажи и охват.",
      "instruction":"",
      "_pageLevelProgress": {
          "_isEnabled": false
      }
  },
  {
      "_id":"c-500",
      "_parentId":"b-500",
      "_type":"component",
      "_component":"graphic",
      "_classes":"",
      "_layout":"full",
      "title":"Отчетность по рекламе в Ads Manager",
      "displayTitle":"Отчетность по рекламе в Ads Manager",
      "body":"Чтобы просмотреть метрики видео в Ads Manager, выберите <strong>Столбцы</strong>, а затем <strong>Вовлеченность в видео</strong>.",
      "instruction":"",
      "_pageLevelProgress": {
        "_isEnabled": true
      },
      "_graphic": {
          "alt": "Снимок экрана о метриках видео в Ads Manager",
          "src": "course/en/images/05_metrics/adsmanager_video_metrics.png",
          "attribution":""
      }
  },
  {
      "_id":"c-520",
      "_parentId":"b-520",
      "_type":"component",
      "_component":"content-accordion",
      "_classes":"",
      "_layout":"full",
      "title": "Метрики",
      "displayTitle": "",
      "body": "Давайте посмотрим, что значат конкретные метрики.",
      "instruction": "",
      "_setCompletionOn":"inview",
      "_items": [
        {
          "alt": "10-секундные просмотры видео",
          "title": "10-секундные просмотры видео",
          "body": "Количество просмотров видео в совокупности в течение как минимум 10 секунд или на 97&#160;% от всей его длины (в зависимости от того, что произошло раньше)."
        },
        {
          "alt": "Цена за 10-секундный просмотр видео",
          "title": "Цена за 10-секундный просмотр видео",
          "body": "Средняя цена за 10-секундный просмотр видео. Эта метрика рассчитывается путем деления общей потраченной суммы на количество 10-секундных просмотров видео."
        },
        {
          "alt": "3-секундные просмотры видео",
          "title": "3-секундные просмотры видео",
          "body": "Количество просмотров видео в совокупности в течение как минимум 3 секунд или на 97&#160;% от всей его длины (в зависимости от того, что произошло раньше)."
        },
        {
          "alt": "Цена за 3-секундный просмотр видео",
          "title": "Цена за 3-секундный просмотр видео",
          "body": "Средняя цена за каждый 3-секундный просмотр видео. Эта метрика рассчитывается путем деления общей потраченной суммы на количество 3-секундных просмотров видео."
        },
        {
          "alt": "Охват",
          "title": "Охват",
          "body": "Количество людей, которым была показана ваша реклама."
        },
        {
          "alt": "Потраченная сумма",
          "title": "Потраченная сумма",
          "body": "Общая сумма, которую вы потратили на кампанию с видеорекламой за все время ее работы. Эта сумма зависит от выбранного периода времени."
        },
        {
            "alt": "Просмотры видео",
            "title": "Просмотры видео",
            "body": "<strong>Просмотры видео в точке 25&#160;%</strong><br>Количество просмотров вашего видео на 25&#160;%, включая просмотры, когда человек прокрутил видео до этого момента.<br><br><strong>Просмотры видео в точке 50%</strong><br>Количество просмотров вашего видео на 50&#160;%, включая просмотры, когда человек прокрутил видео до этого момента.<br><br><strong>Просмотры видео в точке 75%</strong><br>Количество просмотров вашего видео на 75&#160;%, включая просмотры, когда человек прокрутил видео до этого момента.<br><br><strong>Просмотры видео в точке 95%</strong><br>Количество просмотров вашего видео на 95&#160;%, включая просмотры, когда человек прокрутил видео до этого момента.<br><br><strong>Просмотры видео в точке 100%</strong><br>Количество просмотров вашего видео на 100&#160;%, включая просмотры, когда человек прокрутил видео до этого момента.<br><br><strong>Просмотренная доля видео</strong><br>Среднее время просмотра видео (в процентах). Метрика вычисляется как средняя доля просмотра видео (в процентах) среди всех просмотров видео.<br><br><strong>Среднее время просмотра видео</strong><br>Среднее время, в течение которого люди смотрели видео. Данная метрика рассчитывается путем деления общего времени просмотра видео на общее количество его просмотров, включая повторные воспроизведения."
        }
      ]
  },
  {
      "_id":"c-550",
      "_parentId":"b-530",
      "_type":"component",
      "_component":"text",
      "_classes":"",
      "_layout":"full",
      "title":"Метрики для кольцевой галереи и слайд-шоу",
      "displayTitle":"Метрики для кольцевой галереи и слайд-шоу",
      "body":"<b>Кольцевая галерея</b>: вы можете просмотреть результативность отдельной карточки с видеорекламой и сводные результаты по другим метрикам видео.<br><br><b>Слайд-шоу</b>: для этого формата доступны такие же метрики, как для стандартного видео (см. выше).",
      "instruction":"",
      "_pageLevelProgress": {
          "_isEnabled": true
      }
  },
  {
      "_id":"c-560",
      "_parentId":"b-540",
      "_type":"component",
      "_component":"graphic",
      "_classes":"",
      "_layout":"full",
      "title":"Метрики звука",
      "displayTitle":"Метрики звука",
      "body":"<strong>С выключенным/включенным звуком:</strong> мы уже говорили о том, что многие люди смотрят видео на работе или в других местах, где нельзя шуметь. Поэтому если вы хотите сделать рекламу эффективной даже без звука, не забудьте добавить подписи, текст, субтитры или логотипы. Также не забудьте загрузить звуковой файл на тот случай, если человек все-таки будет смотреть видео со звуком.<br><br>Мы понимаем, что рекламодателям важно узнать, как люди смотрят их рекламу: со звуком или без. Это тоже можно узнать в Статистике рекламы.<br><br>Метрика «Звук видео» предлагает разбивку количества просмотров вашей видеорекламы со звуком и без. Эту метрику можно найти в раскрывающемся списке «Разбивка», однако она недоступна в настраиваемых столбцах.",
      "instruction":"",
      "_pageLevelProgress": {
        "_isEnabled": true
      },
      "_graphic": {
          "alt": "Снимок экрана раскрывающегося списка с разбивкой",
          "src": "course/en/images/05_metrics/breakdown_dropdown.png",
          "attribution":""
      }
  },
  {
      "_id":"c-565",
      "_parentId":"b-550",
      "_type":"component",
      "_component":"text",
      "_classes":"",
      "_layout":"full",
      "title":"",
      "displayTitle":"",
      "body":"Подробнее об отчетности можно узнать из курсов <a href='https://www.facebook.com/facebookmedia/best-practices/video-metrics' target='_blank'>Результативность видео на Facebook</a> и/или <a href='https://www.facebook.com/business/help/1792720544284355?helpref=faq_content' target='_blank'>Метрики видеорекламы</a>.",
      "instruction":"",
      "_pageLevelProgress": {
          "_isEnabled": false
      }
  },
  {
    "_id": "c-570",
    "_parentId": "b-555",
    "_type": "component",
    "_component": "co-jump",
    "_classes": "color-test",
    "_preLinkBody": "Следующий раздел&#160;— ",
    "_linkBody": "Видео: мифы и правда",
    "_postLinkBody": " .",
    "_link": "#/id/co-300",
    "_graphic": "adapt/css/assets/icon_nextPage.png",
    "_pageLevelProgress": {
        "_isEnabled": false
    }
  },
  {
      "_id":"c-580",
      "_parentId":"b-560",
      "_type":"component",
      "_component":"text",
      "_classes":"",
      "_layout":"full",
      "title":"",
      "displayTitle":"",
      "body":"Многие термины и понятия в рамках этого курса похожи друг на друга, что может привести к путанице. Чтобы помочь вам в них разобраться, ниже мы развеем несколько мифов о видео.",
      "instruction":"",
      "_pageLevelProgress": {
          "_isEnabled": false
      }
  },
  {
      "_id":"c-590",
      "_parentId":"b-570",
      "_type":"component",
      "_component":"text",
      "_classes":"",
      "_layout":"full",
      "title":"Факты о видео",
      "displayTitle":"Факты о видео",
      "body":"<h2>Показы и воспроизведения</h2><br><strong>Показ</strong> засчитывается каждый раз, когда видеореклама впервые попадает в зону видимости на экране устройства. Другими словами, это момент, когда реклама появляется на экране браузера на ПК или на моб. устройстве. Это определение верно для всех форматов и плейсментов.<br><br><strong>Воспроизведение</strong> засчитывается в случае запуска видеорекламы. Видео могут воспроизводиться автоматически (если запуск настроен по умолчанию) и после клика (когда человеку нужно нажать кнопку, чтобы запустить видео).<hr><h2>Цена за показ и цена за просмотр</h2><br><strong>Цена за показ</strong>&#160;— или CPM&#160;— это средняя цена за 1&#160;000 показов. Показ засчитывается каждый раз, когда реклама впервые попадает в зону видимости на экране устройства. Например, если человек видит рекламу два раза в день, засчитывается два показа. Если человек видит рекламу, прокручивает вниз, а затем возвращается к ней, засчитывается один показ.<br><br>CPM рассчитывается путем деления общей потраченной суммы на количество показов, а затем умножения результата на 1&#160;000. Пример. Если вы потратили 50&#160;$ и получили 10&#160;000 показов, CPM составит 5&#160;$.<br><br><strong>Цена за просмотр</strong>&#160;— или CPV&#160;— это средняя цена за просмотр видео. В отчеты попадают цены за 10-секундный и за 3-секундный просмотры видео.<br><br><ul><li>Цена за 10-секундный просмотр видео рассчитывается путем деления общей потраченной суммы на количество 10-секундных просмотров видео.</li><li>Цена за 3-секундный просмотр видео рассчитывается путем деления общей потраченной суммы на количество 3-секундных просмотров видео.</li></ul>",
      "instruction":"",
      "_pageLevelProgress": {
          "_isEnabled": true
      }
  },
  {
      "_id":"c-595",
      "_parentId":"b-575",
      "_type":"component",
      "_component":"text",
      "_classes":"",
      "_layout":"full",
      "title":"Разрушаем мифы",
      "displayTitle":"Разрушаем мифы",
      "body":"<h2>Миф 1. Разницы между воспроизведениями видео и показами видео нет.</h2><br>Факт. «Воспроизведения видео» и «Показы видео»&#160;— это разные понятия. <strong>Показ</strong>&#160;— это момент, когда реклама появляется на экране браузера на ПК или на моб. устройстве. <strong>Воспроизведение</strong> (автоматическое или после клика)&#160;засчитывается в случае запуска видео на Facebook или в Instagram.<hr><h2>Миф 2. Соотношение сторон в видео зависит от выбранной цели.</h2><br>Факт. Соотношение сторон в видеорекламе зависит от плейсмента и выбранного формата. В свою очередь, плейсмент и формат зависят от цели.<hr><h2>Миф 3. Метрика 3-секундных просмотров видео учитывает количество просмотров видео в течение трех секунд.</h2><br>Факт. Метрика 3-секундных просмотров видео учитывает количество просмотров видео в течение 3 секунд и дольше. На самом деле средняя продолжительность просмотров, засчитанных этой метрикой, гораздо больше (как правило, 13–19 секунд).",
      "instruction":"",
      "_pageLevelProgress": {
          "_isEnabled": true
      }
  },
  {
    "_id": "c-600",
    "_parentId": "b-580",
    "_type": "component",
    "_component": "co-jump",
    "_classes": "color-test",
    "_preLinkBody": "Следующий раздел&#160;— ",
    "_linkBody": "Заключение",
    "_postLinkBody": ".",
    "_link": "#/id/co-350",
    "_graphic": "adapt/css/assets/icon_nextPage.png",
    "_pageLevelProgress": {
        "_isEnabled": false
    }
  },
  {
      "_id":"c-610",
      "_parentId":"b-590",
      "_type":"component",
      "_component":"text",
      "_classes":"",
      "_layout":"full",
      "title":"",
      "displayTitle":"",
      "body":"Из этого курса вы узнали много нового. Давайте подведем некоторые итоги.",
      "instruction":"",
      "_pageLevelProgress": {
          "_isEnabled": false
      }
  },
  {
      "_id":"c-620",
      "_parentId":"b-600",
      "_type":"component",
      "_component":"text",
      "_classes":"",
      "_layout":"full",
      "title":"Платформы, плейсменты и форматы",
      "displayTitle":"Платформы, плейсменты и форматы",
      "body":"Очень важно понимать разницу между платформами, плейсментами и форматами.<br><br><ul><li><strong>Платформа</strong>&#160;— это приложение или сервис, где вы хотите показывать свою видеорекламу: <strong>Facebook, Instagram</strong> и <strong>Audience Network</strong>.</li><li>Плейсмент&#160;— это то место, где будет демонстрироваться ваше видео в рамках платформы. Предположим, вы хотите показывать свою видеорекламу в <strong>ленте Instagram. В этом случае Instagram</strong>&#160;— это <i>платформа</i>, а <strong>лента</strong>&#160;— это <i>плейсмент</i> в рамках платформы.<li>Формат&#160;— это оформление видеорекламы. Проще говоря, это то, как будет выглядеть ваше видео. Например, в&#160;качестве формата можно выбрать <strong>одно видео</strong>, <strong>кольцевую галерею</strong>, <strong>слайд-шоу</strong> или <strong>подборку.</strong></li></ul>",
      "instruction":"",
      "_pageLevelProgress": {
          "_isEnabled": true
      }
  },
  {
      "_id":"c-630",
      "_parentId":"b-610",
      "_type":"component",
      "_component":"text",
      "_classes":"",
      "_layout":"full",
      "title":"Характеристики видео",
      "displayTitle":"Характеристики видео",
      "body":"Что мы рассмотрели в этом разделе:<br><br><ul><li><strong>Типы</strong> видео<ul><li>MP4, MOV</li></ul></li><li>Рекомендуемая <strong>длина</strong> файлов видео<ul><li>Видеореклама должна длиться не более 15 секунд</li></ul></li><li><strong>Формат</strong><ul><li>Это соотношение сторон видео</li><li>Чтобы максимально широко использовать видео в кампаниях на Facebook и в Instagram, рекомендуем выбрать соотношение сторон 4:5</li></ul></li><li>Рекомендации по <strong>оформлению видео</strong></li><li>Советы по оптимизации видео для воспроизведения <strong>со звуком и без</strong></li></ul>",
      "instruction":"",
      "_pageLevelProgress": {
          "_isEnabled": true
      }
  },
  {
      "_id":"c-640",
      "_parentId":"b-620",
      "_type":"component",
      "_component":"text",
      "_classes":"",
      "_layout":"full",
      "title":"Метрики",
      "displayTitle":"Метрики",
      "body":"Метрики позволяют узнать количество просмотров видео, их продолжительность и стоимость. С их помощью вы можете измерить эффективность видеорекламы на Facebook, в Instagram и в Audience Network.<br><br>Вы можете измерить:<br><br><ul><li>среднюю продолжительность просмотра видео;</li><li>цену за просмотр видео;</li><li>просмотры видео в Статистике Страницы;</li><li>охват;</li><li>метрики звука.</li></ul>",
      "instruction":"",
      "_pageLevelProgress": {
          "_isEnabled": true
      }
  },
  {
    "_id": "c-650",
    "_parentId": "b-630",
    "_type": "component",
    "_component": "co-jump",
    "_classes": "color-test",
    "_preLinkBody": "Теперь&#160;— небольшая ",
    "_linkBody": "проверка знаний",
    "_postLinkBody": ".",
    "_link": "#/id/co-400",
    "_graphic": "adapt/css/assets/icon_nextPage.png",
    "_pageLevelProgress": {
        "_isEnabled": false
    }
  },
  {
      "_id":"c-660",
      "_parentId":"b-640",
      "_type":"component",
      "_component":"mcq",
      "_setCompletionOn":"inview",
      "_classes":"",
      "_layout":"full",
      "_attempts":1,
      "_shouldDisplayAttempts": false,
      "_questionWeight":1,
      "_isRandom":false,
      "_selectable":2,
      "title": "Вопрос 1 из 5",
      "displayTitle": "Вопрос 1 из 5",
      "body": "Что из приведенного ниже является платформой? (Выберите два варианта)",
      "instruction": "",
      "_items": [
          {
            "text": "Audience Network",
            "_shouldBeSelected":true
          },
          {
            "text": "Instagram",
            "_shouldBeSelected":true
          },
          {
            "text": "Вставка в видео",
            "_shouldBeSelected":false
          },
          {
             "text": "Правый столбец",
            "_shouldBeSelected":false
          }
      ],
      "_feedback":{
          "correct":"Верно, Audience Network и Instagram&#160;— это платформы Facebook.",
          "_incorrect": {
            "notFinal": "",
            "final": "К сожалению, ответ неверный. К платформам Facebook относятся Audience Network и Instagram."
          },
          "_partlyCorrect": {
            "notFinal": "",
            "final": ""
          }
      },
      "_buttons": {
      "_submit": {
        "buttonText": "Отправить",
        "ariaLabel": "Нажмите здесь, чтобы отправить ответ."
      },
      "_reset": {
        "buttonText": "Сбросить",
        "ariaLabel": ""
      },
      "_showCorrectAnswer": {
        "buttonText": "Правильный ответ",
        "ariaLabel": ""
      },
      "_hideCorrectAnswer": {
        "buttonText": "Мой ответ",
        "ariaLabel": ""
      },
      "_showFeedback": {
        "buttonText": "Показать комментарий",
        "ariaLabel": ""
      },
          "remainingAttemptsText": "осталось попыток",
          "remainingAttemptText": "последняя попытка"
      },
      "_pageLevelProgress": {
          "_isEnabled": true
      }
  },
  {
      "_id":"c-670",
      "_parentId":"b-650",
      "_type":"component",
      "_component":"mcq",
      "_setCompletionOn":"inview",
      "_classes":"",
      "_layout":"full",
      "_attempts":1,
      "_shouldDisplayAttempts": false,
      "_questionWeight":1,
      "_isRandom":false,
      "_selectable":1,
      "title": "Вопрос 2 из 5",
      "displayTitle": "Вопрос 2 из 5",
      "body": "Какой из форматов ниже демонстрируется в течение ограниченного времени?",
      "instruction": "",
      "_items": [
          {
            "text": "Холст",
            "_shouldBeSelected":false
          },
          {
            "text": "Instagram Stories",
            "_shouldBeSelected":true
          },
          {
             "text": "Вставка в видео",
            "_shouldBeSelected":false
          },
          {
            "text": "Слайд-шоу",
            "_shouldBeSelected":false
          }
      ],
      "_feedback":{
          "correct":"Верно! Истории Instagram демонстрируются в течение ограниченного времени.",
          "_incorrect": {
            "notFinal": "",
            "final": "К сожалению, ответ неверный. Истории Instagram демонстрируются в течение ограниченного времени."
          },
          "_partlyCorrect": {
            "notFinal": "",
            "final": ""
          }
      },
      "_buttons": {
      "_submit": {
        "buttonText": "Отправить",
        "ariaLabel": "Нажмите здесь, чтобы отправить ответ."
      },
      "_reset": {
        "buttonText": "Сбросить",
        "ariaLabel": ""
      },
      "_showCorrectAnswer": {
        "buttonText": "Правильный ответ",
        "ariaLabel": ""
      },
      "_hideCorrectAnswer": {
        "buttonText": "Мой ответ",
        "ariaLabel": ""
      },
      "_showFeedback": {
        "buttonText": "Показать комментарий",
        "ariaLabel": ""
      },
          "remainingAttemptsText": "осталось попыток",
          "remainingAttemptText": "последняя попытка"
      },
      "_pageLevelProgress": {
          "_isEnabled": true
      }
  },
  {
      "_id":"c-680",
      "_parentId":"b-660",
      "_type":"component",
      "_component":"mcq",
      "_setCompletionOn":"inview",
      "_classes":"",
      "_layout":"full",
      "_attempts":1,
      "_shouldDisplayAttempts": false,
      "_questionWeight":1,
      "_isRandom":false,
      "_selectable":1,
      "title": "Вопрос 3 из 5",
      "displayTitle": "Вопрос 3 из 5",
      "body": "В чем разница между показом и воспроизведением?",
      "instruction": "",
      "_items": [
          {
            "text": "Показ засчитывается, когда первый пиксель рекламы появляется на экране, а воспроизведение начинается непосредственно после запуска видео.",
            "_shouldBeSelected":true
          },
          {
             "text": "Показы говорят о том, сколько людей посмотрело ваше видео; воспроизведение засчитывается после 10 секунд показа.",
            "_shouldBeSelected":false
          },
          {
            "text": "Разницы нет. Обе эти метрики учитывают, сколько раз видео демонстрировалось на мобильном устройстве человека.",
            "_shouldBeSelected":false
          },
          {
            "text": "Показ засчитывается, когда на ПК или мобильном устройстве появляется более трех пикселей контента; воспроизведение засчитывается, когда кто-то посмотрел видео и поделился им.",
            "_shouldBeSelected":false
          }
      ],
      "_feedback":{
          "correct":"Верно! Показ засчитывается, когда первый пиксель рекламы появляется на экране, а воспроизведение начинается непосредственно после запуска видео.",
          "_incorrect": {
            "notFinal": "",
            "final": "К сожалению, ответ неверный. Показ засчитывается, когда первый пиксель рекламы появляется на экране, а воспроизведение начинается непосредственно после запуска видео."
          },
          "_partlyCorrect": {
            "notFinal": "",
            "final": ""
          }
      },
      "_buttons": {
      "_submit": {
        "buttonText": "Отправить",
        "ariaLabel": "Нажмите здесь, чтобы отправить ответ."
      },
      "_reset": {
        "buttonText": "Сбросить",
        "ariaLabel": ""
      },
      "_showCorrectAnswer": {
        "buttonText": "Правильный ответ",
        "ariaLabel": ""
      },
      "_hideCorrectAnswer": {
        "buttonText": "Мой ответ",
        "ariaLabel": ""
      },
      "_showFeedback": {
        "buttonText": "Показать комментарий",
        "ariaLabel": ""
      },
          "remainingAttemptsText": "осталось попыток",
          "remainingAttemptText": "последняя попытка"
      },
      "_pageLevelProgress": {
          "_isEnabled": true
      }
  },
  {
      "_id":"c-690",
      "_parentId":"b-670",
      "_type":"component",
      "_component":"mcq",
      "_setCompletionOn":"inview",
      "_classes":"",
      "_layout":"full",
      "_attempts":1,
      "_shouldDisplayAttempts": false,
      "_questionWeight":1,
      "_isRandom":false,
      "_selectable":1,
      "title": "Вопрос 4 из 5",
      "displayTitle": "Вопрос 4 из 5",
      "body": "Что из указанного ниже позволяет делать формат вставок в видео?",
      "instruction": "",
      "_items": [
          {
            "text": "Показывать 30-секундную рекламу на платформе Facebook",
            "_shouldBeSelected":false
          },
          {
             "text": "Показывать рекламу продолжительностью 5–15 секунд внутри видео на Facebook",
            "_shouldBeSelected":true
          },
          {
            "text": "Показывать одну и ту же рекламу в каждом видео",
            "_shouldBeSelected":false
          },
          {
            "text": "Показывать рекламу продолжительностью 5–15 секунд внутри подборки",
            "_shouldBeSelected":false
          }
      ],
      "_feedback":{
          "correct":"Верно! Формат вставок в видео позволяет показывать рекламу продолжительностью от 5 до 15 секунд внутри видео на Facebook.",
          "_incorrect": {
            "notFinal": "",
            "final": "К сожалению, ответ неверный. Формат вставок в видео позволяет показывать рекламу продолжительностью от 5 до 15 секунд внутри видео на Facebook."
          },
          "_partlyCorrect": {
            "notFinal": "",
            "final": ""
          }
      },
      "_buttons": {
      "_submit": {
        "buttonText": "Отправить",
        "ariaLabel": "Нажмите здесь, чтобы отправить ответ."
      },
      "_reset": {
        "buttonText": "Сбросить",
        "ariaLabel": ""
      },
      "_showCorrectAnswer": {
        "buttonText": "Правильный ответ",
        "ariaLabel": ""
      },
      "_hideCorrectAnswer": {
        "buttonText": "Мой ответ",
        "ariaLabel": ""
      },
      "_showFeedback": {
        "buttonText": "Показать комментарий",
        "ariaLabel": ""
      },
          "remainingAttemptsText": "осталось попыток",
          "remainingAttemptText": "последняя попытка"
      },
      "_pageLevelProgress": {
          "_isEnabled": true
      }
  },
  {
      "_id":"c-700",
      "_parentId":"b-680",
      "_type":"component",
      "_component":"mcq",
      "_setCompletionOn":"inview",
      "_classes":"",
      "_layout":"full",
      "_attempts":1,
      "_shouldDisplayAttempts": false,
      "_questionWeight":1,
      "_isRandom":false,
      "_selectable":2,
      "title": "Вопрос 5 из 5",
      "displayTitle": "Вопрос 5 из 5",
      "body": "Какие два типа файлов можно загружать на Facebook? (Выберите два варианта.)",
      "instruction": "",
      "_items": [
          {
            "text": "AVI",
            "_shouldBeSelected":false
          },
          {
            "text": "GIF",
            "_shouldBeSelected":false
          },
          {
            "text": "JPEG",
            "_shouldBeSelected":false
          },
          {
            "text": "MOV",
            "_shouldBeSelected":true
          },
          {
             "text": "MP4",
            "_shouldBeSelected":true
          }
      ],
      "_feedback":{
          "correct":"Верно! На Facebook можно загружать файлы MP4 и MOV.",
          "_incorrect": {
            "notFinal": "",
            "final": "К сожалению, ответ неверный. На Facebook можно загружать файлы MP4 и MOV."
          },
          "_partlyCorrect": {
            "notFinal": "",
            "final": "На Facebook можно загружать файлы MP4 и MOV."
          }
      },
      "_buttons": {
      "_submit": {
        "buttonText": "Отправить",
        "ariaLabel": "Нажмите здесь, чтобы отправить ответ."
      },
      "_reset": {
        "buttonText": "Сбросить",
        "ariaLabel": ""
      },
      "_showCorrectAnswer": {
        "buttonText": "Правильный ответ",
        "ariaLabel": ""
      },
      "_hideCorrectAnswer": {
        "buttonText": "Мой ответ",
        "ariaLabel": ""
      },
      "_showFeedback": {
        "buttonText": "Показать комментарий",
        "ariaLabel": ""
      },
          "remainingAttemptsText": "осталось попыток",
          "remainingAttemptText": "последняя попытка"
      },
      "_pageLevelProgress": {
          "_isEnabled": true
      }
  },
  {
      "_id": "c-710",
      "_parentId": "b-690",
      "_type":"component",
      "_component":"co-jump",
      "_classes":"color-test",
      "_autoComplete":true,
      "_preLinkBody":"Чтобы завершить курс, нажмите кнопку ниже. Примечание: нажмите <a href='#'>здесь</a>, чтобы проверить, все ли модули вы прошли до конца.<br>",
      "_linkBody":"<div style = 'text-align:center;padding:8px;'><button class='buttons-action'><b>КУРС ПРОЙДЕН</b></button></div><br> ",
      "_postLinkBody":"",
      "_link":"",
      "_pageLevelProgress": {
          "_isEnabled": false
      }
  }

]
